<?xml version="1.0" encoding="UTF-8" standalone="no"?>
<svg
   xmlns:dc="http://purl.org/dc/elements/1.1/"
   xmlns:cc="http://creativecommons.org/ns#"
   xmlns:rdf="http://www.w3.org/1999/02/22-rdf-syntax-ns#"
   xmlns:svg="http://www.w3.org/2000/svg"
   xmlns="http://www.w3.org/2000/svg"
   xmlns:sodipodi="http://sodipodi.sourceforge.net/DTD/sodipodi-0.dtd"
   xmlns:inkscape="http://www.inkscape.org/namespaces/inkscape"
   inkscape:export-ydpi="96"
   inkscape:export-xdpi="96"
   inkscape:export-filename="/home/bvr/code/brutils-logo/brutils-logo.svg.png"
   sodipodi:docname="brutils-logo.svg"
   inkscape:version="1.0 (4035a4fb49, 2020-05-01)"
   id="svg8"
   version="1.1"
   viewBox="0 0 1600.0001 1600"
   height="2.6666667in"
   width="2.6666667in">
  <defs
     id="defs2" />
  <sodipodi:namedview
     fit-margin-bottom="0"
     fit-margin-right="0"
     fit-margin-left="0"
     fit-margin-top="0"
     inkscape:document-rotation="0"
     inkscape:bbox-nodes="true"
     inkscape:bbox-paths="true"
     inkscape:snap-bbox="true"
     inkscape:snap-others="false"
     inkscape:snap-nodes="false"
     inkscape:snap-global="false"
     inkscape:snap-to-guides="true"
     inkscape:snap-grids="true"
     inkscape:guide-bbox="true"
     showguides="false"
     inkscape:window-maximized="0"
     inkscape:window-y="16"
     inkscape:window-x="0"
     inkscape:window-height="1044"
     inkscape:window-width="1916"
     borderlayer="true"
     units="in"
     showgrid="false"
     inkscape:current-layer="layer1"
     inkscape:document-units="in"
     inkscape:cy="70.020663"
     inkscape:cx="-229.02022"
     inkscape:zoom="0.35355339"
     inkscape:pageshadow="2"
     inkscape:pageopacity="1"
     borderopacity="1.0"
     bordercolor="#666666"
     pagecolor="#ffffff"
     id="base">
    <sodipodi:guide
       inkscape:color="rgb(168,109,63)"
       inkscape:label=""
       inkscape:locked="false"
       id="guide840"
       orientation="0,1"
       position="-9478.0397,2238.2936" />
    <inkscape:grid
       originy="1561.7066"
       originx="-10328.04"
       units="in"
       spacingy="37.500001"
       spacingx="37.500001"
       snapvisiblegridlinesonly="true"
       visible="true"
       enabled="true"
       dotted="false"
       empspacing="16"
       opacity="0.10196078"
       color="#00bfc5"
       empopacity="0.23921569"
       empcolor="#00197a"
       id="grid4530"
       type="xygrid" />
    <sodipodi:guide
       inkscape:color="rgb(200,146,96)"
       inkscape:label="Thirds"
       inkscape:locked="false"
       id="guide836"
       orientation="1,0"
       position="-9661.4398,-711.70655" />
    <sodipodi:guide
       inkscape:color="rgb(200,146,96)"
       inkscape:label="Thirds"
       inkscape:locked="false"
       id="guide838"
       orientation="1,0"
       position="-8994.7064,-711.70655" />
    <sodipodi:guide
       inkscape:color="rgb(175,82,203)"
       inkscape:label="Halves"
       inkscape:locked="false"
       id="guide841"
       orientation="0,1"
       position="-10328.04,-336.70654" />
    <sodipodi:guide
       inkscape:color="rgb(175,82,203)"
       inkscape:label="Halves"
       inkscape:locked="false"
       id="guide843"
       orientation="1,0"
       position="-9328.0398,-711.70655" />
  </sodipodi:namedview>
  <metadata
     id="metadata5">
    <rdf:RDF>
      <cc:Work
         rdf:about="">
        <dc:format>image/svg+xml</dc:format>
        <dc:type
           rdf:resource="http://purl.org/dc/dcmitype/StillImage" />
        <dc:title></dc:title>
      </cc:Work>
    </rdf:RDF>
  </metadata>
  <g
     transform="translate(-10328.04,1561.7066)"
     inkscape:label="Base"
     id="layer1"
     inkscape:groupmode="layer">
    <path
       transform="scale(6.2500002)"
       d="M 1652.4863,-162.87305 V 6.1269531 h 60.1211 c -4.4257,-3.0095557 -7.1198,-6.14635972 -10.1386,-9.7910156 -6.7263,-8.1203215 -13.2427,-18.5978035 -18.0215,-30.0917965 -10.1892,-24.506883 -10.7237,-47.615291 -1.7754,-73.037111 2.3155,-6.57824 3.5974,-11.41339 4.0058,-13.88281 0.04,-0.2406 0.054,-0.42941 0.07,-0.61328 -0.6483,-1.47982 -1.2478,-2.95176 -1.7578,-4.4336 -0.6394,-1.858 -1.5539,-2.45773 -1.7695,-6.41601 z m 113.2539,117.943362 c -0.3868,0.488164 -0.7415,0.909433 -1.205,1.5625 -2.8816,4.05913 -9.267,16.009524 -11.4864,21.78711 a 18.674702,18.674702 0 0 0 0,0.002 c -3.08,8.017236 -6.3047,16.2752991 -7.7304,19.6972656 a 18.674702,18.674702 0 0 0 0,0.00195 c -1.1029,2.64664911 -3.6843,5.6079515 -6.8418,8.0058593 h 83.0097 L 1770.5254,-44.83394 c -1.6531,0.07986 -3.2758,0.04018 -4.7852,-0.0957 z"
       style="fill:#14c5ff;stroke:none"
       id="polygon1569" />
    <path
       transform="scale(6.2500002)"
       d="m 1739.4863,-249.87305 32.6817,32.68164 c 1.8864,-0.25803 3.8407,-0.35379 5.8613,-0.22461 -0.1611,-1.39617 -0.2214,-2.88686 -0.1406,-4.49414 0.4493,-8.93872 4.4709,-13.69308 7.3222,-17.73828 2.9391,-4.16929 6.2596,-7.38955 10.1739,-10.11133 0.054,-0.0373 0.1084,-0.0758 0.1621,-0.11328 z m 86.8926,0 c 0.5381,0.37944 1.0807,0.75402 1.6094,1.15039 3.252,2.4382 6.5261,5.29167 10.1269,8.6211 7.2013,6.65886 15.5072,15.1419 23.5938,23.91406 8.0864,8.77216 15.8743,17.74864 21.9375,25.47852 3.0317,3.86492 5.6178,7.366 7.789,10.80664 1.0856,1.72033 2.0737,3.39623 3.0411,5.52539 0.9675,2.12907 2.4867,4.23829 2.2734,10.51562 -0.6811,20.04468 -19.3403,32.9751 -37.1621,31.68945 0.1074,0.78 0.1798,1.64708 0.2148,2.61524 l 48.6836,48.683593 V -249.87305 Z"
       style="fill:#ff5701;stroke:none"
       id="polygon1571" />
    <path
       transform="scale(6.2500002)"
       d="m 1652.4863,-249.87305 v 51 l 42.8535,42.85352 c 0.8986,-0.93279 1.7671,-1.83956 2.7872,-2.87891 6.122,-6.23825 14.3605,-14.3203 23.4257,-22.9414 10.7695,-10.24171 18.8901,-17.83724 26.4121,-23.55469 l -44.4785,-44.47852 z m 195.0879,144.08789 c -0.8951,0.96906 -1.7487,1.90623 -2.748,2.95704 -6.4123,6.742992 -14.9205,15.115792 -24.2891,23.835932 -11.2376,10.459844 -18.8943,17.505166 -25.4609,22.708985 l 62.4101,62.4101561 h 51 V -44.873047 Z"
       style="fill:#00a800;stroke:none"
       id="polygon1573" />
    <path
       style="fill:#0b280b;stroke-width:20.2701"
       d="m 10800.507,-56.628605 c 6.874,-16.498964 28.073,-70.539745 47.109,-120.090355 19.035,-49.55075 57.539,-122.39321 85.565,-161.87238 42.424,-59.76054 59.941,-69.74467 104.605,-59.62392 46.51,10.53926 81.234,-13.52286 261.062,-180.90413 114.079,-106.18285 207.813,-204.75007 208.298,-219.03802 0.486,-14.28784 -9.751,-44.36575 -22.746,-66.83987 -20.05,-34.66949 -16.576,-47.45338 22.921,-84.35485 36.443,-34.04949 51.697,-37.98486 70.252,-18.12434 54.853,58.70913 157.749,19.84128 160.482,-60.62013 1.741,-51.2289 -365.023,-449.0885 -415.57,-450.8054 -19.043,-0.6467 -50.329,21.1076 -69.527,48.3427 -31.735,45.0214 -32.185,53.9933 -4.968,98.78 28.111,46.2545 26.803,52.0115 -21.421,94.3278 -39.627,34.7726 -56.664,39.3887 -74.585,20.2087 -52.898,-56.6189 -110.718,-25.9698 -311.86,165.3142 -111.666,106.19443 -203.249,199.51477 -203.516,207.37907 -0.267,7.86429 7.596,30.71667 17.474,50.7832 12.453,25.29562 4.08,75.91543 -27.299,165.06367 -50.293,142.87962 -48.099,236.1477 8.772,372.93326 49.013,117.88326 148.675,238.202673 164.952,199.140795 z"
       id="path2179" />
  </g>
</svg>
